{
  "type": "mysql",
  "host": "localhost",
  "port": 3306,
  "username": "root",
  "password": "root",
  "database": "spotify",
  "autoLoadEntities": true,
  "synchronize": false,
  "migrations": [
    "dist/database/migrations/*.js"
  ],
  "entities": [
    "dist/**/*.entity.js",
    "dist/**/**/entity/*.entity.js"
  ],
  "cli": {
    "migrationsDir": "src/database/migrations"
  }
}
